a5/cpu_tb.vcd
$date
	Fri Oct  9 16:47:44 2020
$end
$version
	Icarus Verilog
$end
$timescale
	1ps
$end
$scope module cpu_tb $end
$var wire 32 ! idata [31:0] $end
$var wire 32 " iaddr [31:0] $end
$var wire 4 # dwe [3:0] $end
$var wire 32 $ dwdata [31:0] $end
$var wire 32 % drdata [31:0] $end
$var wire 32 & daddr [31:0] $end
$var reg 1 ' clk $end
$var reg 32 ( dtmp [31:0] $end
$var reg 32 ) exp_reg [31:0] $end
$var reg 1 * reset $end
$var integer 32 + exp_file [31:0] $end
$var integer 32 , fail [31:0] $end
$var integer 32 - i [31:0] $end
$var integer 32 . log_file [31:0] $end
$var integer 32 / s [31:0] $end
$scope module u1 $end
$var wire 1 ' clk $end
$var wire 1 * reset $end
$var wire 1 0 xwe $end
$var wire 32 1 xv2 [31:0] $end
$var wire 32 2 xv1 [31:0] $end
$var wire 5 3 xs2 [4:0] $end
$var wire 5 4 xs1 [4:0] $end
$var wire 5 5 xd [4:0] $end
$var wire 32 6 x_xv2 [31:0] $end
$var wire 6 7 op [5:0] $end
$var wire 32 8 idata [31:0] $end
$var wire 32 9 drdata [31:0] $end
$var wire 32 : aluout [31:0] $end
$var reg 32 ; daddr [31:0] $end
$var reg 32 < dwdata [31:0] $end
$var reg 4 = dwe [3:0] $end
$var reg 32 > iaddr [31:0] $end
$var reg 32 ? xwdata [31:0] $end
$scope module alu $end
$var wire 32 @ rv2 [31:0] $end
$var wire 32 A rv1 [31:0] $end
$var wire 6 B op [5:0] $end
$var reg 32 C rvout [31:0] $end
$upscope $end
$scope module decoder $end
$var wire 32 D r_rv2 [31:0] $end
$var wire 32 E instr [31:0] $end
$var reg 6 F op [5:0] $end
$var reg 5 G rd [4:0] $end
$var reg 5 H rs1 [4:0] $end
$var reg 5 I rs2 [4:0] $end
$var reg 32 J rv2 [31:0] $end
$var reg 1 0 we $end
$upscope $end
$scope module gprs $end
$var wire 1 ' clk $end
$var wire 5 K rd [4:0] $end
$var wire 1 * reset $end
$var wire 5 L rs1 [4:0] $end
$var wire 5 M rs2 [4:0] $end
$var wire 32 N rv1 [31:0] $end
$var wire 32 O rv2 [31:0] $end
$var wire 32 P wdata [31:0] $end
$var wire 1 0 we $end
$var integer 32 Q i [31:0] $end
$upscope $end
$upscope $end
$scope module u2 $end
$var wire 32 R iaddr [31:0] $end
$var wire 32 S idata [31:0] $end
$upscope $end
$scope module u3 $end
$var wire 1 ' clk $end
$var wire 32 T daddr [31:0] $end
$var wire 32 U dwdata [31:0] $end
$var wire 4 V dwe [3:0] $end
$var wire 32 W drdata [31:0] $end
$var wire 30 X a [29:0] $end
$upscope $end
$upscope $end
$enddefinitions $end
#0
$dumpvars
b0 X
b0 W
b0 V
b0 U
b0 T
b10000001100001110000010010011 S
b0 R
b100000 Q
b100000011 P
b0 O
b0 N
b11 M
b1 L
b1 K
b100000011 J
b11 I
b1 H
b1 G
b100 F
b10000001100001110000010010011 E
b0 D
b100000011 C
b100 B
b0 A
b100000011 @
b100000011 ?
b0 >
b0 =
b0 <
b0 ;
b100000011 :
b0 9
b10000001100001110000010010011 8
b100 7
b0 6
b1 5
b1 4
b11 3
b0 2
b100000011 1
10
bx /
bx .
bx -
bx ,
bx +
1*
bx )
bx (
1'
b0 &
b0 %
b0 $
b0 #
b0 "
b10000001100001110000010010011 !
$end
#5000
0'
#10000
b100000 Q
1'
#15000
0'
#20000
b100000 Q
1'
#25000
0'
#30000
b100000 Q
1'
#35000
0'
#40000
b100000 Q
1'
#45000
0'
#50000
b100000 Q
1'
#55000
0'
#60000
b100000 Q
1'
#65000
0'
#70000
b100000 Q
1'
#75000
0'
#80000
b100000 Q
1'
#85000
0'
#90000
b100000 Q
1'
#95000
0'
#100000
b100000011 $
b100000011 <
b100000011 U
b11 #
b11 =
b11 V
00
b11001 7
b11001 B
b11001 F
b100000011 6
b100000011 D
b100000011 O
b1 3
b1 I
b1 M
b0 5
b0 G
b0 K
b0 4
b0 H
b0 L
b100000001000000100011 !
b100000001000000100011 8
b100000001000000100011 E
b100000001000000100011 S
b0 2
b0 A
b0 N
b100 "
b100 >
b100 R
b0 -
1'
b10000000000000000000000000000100 +
b10000000000000000000000000000011 .
0*
#105000
0'
#110000
b1 #
b1 =
b1 V
b11000 7
b11000 B
b11000 F
b10 X
b1000 &
b1000 ;
b1000 T
b1000 5
b1000 G
b1000 K
b100000000010000100011 !
b100000000010000100011 8
b100000000010000100011 E
b100000000010000100011 S
b1000 "
b1000 >
b1000 R
b1 -
b0 %
b0 9
b0 W
1'
#115000
0'
#120000
b11 ?
b11 P
10
b10011 7
b10011 B
b10011 F
b0 X
b0 $
b0 <
b0 U
b0 #
b0 =
b0 V
b0 &
b0 ;
b0 T
b0 1
b0 @
b0 J
b0 6
b0 D
b0 O
b0 3
b0 I
b0 M
b10 5
b10 G
b10 K
b100000011 !
b100000011 8
b100000011 E
b100000011 S
b1100 "
b1100 >
b1100 R
b100000011 %
b100000011 9
b100000011 W
b10 -
1'
#125000
0'
#130000
b10101 7
b10101 B
b10101 F
b11 %
b11 9
b11 W
b10 X
b11 ?
b11 P
b1000 &
b1000 ;
b1000 T
b1000 1
b1000 @
b1000 J
b1000 3
b1000 I
b1000 M
b100 5
b100 G
b100 K
b100000000010001000000011 !
b100000000010001000000011 8
b100000000010001000000011 E
b100000000010001000000011 S
b10000 "
b10000 >
b10000 R
b11 -
1'
#135000
0'
#140000
b0 :
b0 C
b1010 7
b1010 B
b1010 F
b0 ?
b0 P
b0 %
b0 9
b0 W
b1 X
b110 &
b110 ;
b110 T
b11 1
b11 @
b11 J
b11 6
b11 D
b11 O
b100 3
b100 I
b100 M
b11 5
b11 G
b11 K
b11 2
b11 A
b11 N
b10 4
b10 H
b10 L
b1000000010000010000000110110011 !
b1000000010000010000000110110011 8
b1000000010000010000000110110011 E
b1000000010000010000000110110011 S
b10100 "
b10100 >
b10100 R
b100 -
1'
#145000
0'
#150000
b11111111111111111111111011111101 ?
b11111111111111111111111011111101 P
b11 %
b11 9
b11 W
b10 X
b100000011 $
b100000011 <
b100000011 U
b1000 &
b1000 ;
b1000 T
b1111 #
b1111 =
b1111 V
b11111111111111111111111011111101 :
b11111111111111111111111011111101 C
00
b11010 7
b11010 B
b11010 F
b100000011 1
b100000011 @
b100000011 J
b100000011 6
b100000011 D
b100000011 O
b1 3
b1 I
b1 M
b1000 5
b1000 G
b1000 K
b0 2
b0 A
b0 N
b0 4
b0 H
b0 L
b100000010010000100011 !
b100000010010000100011 8
b100000010010000100011 E
b100000010010000100011 S
b11000 "
b11000 >
b11000 R
b101 -
1'
#155000
0'
#160000
b100000011 ?
b100000011 P
b0 #
b0 =
b0 V
10
b10100 7
b10100 B
b10100 F
b0 X
b0 $
b0 <
b0 U
b0 &
b0 ;
b0 T
b0 1
b0 @
b0 J
b0 6
b0 D
b0 O
b0 3
b0 I
b0 M
b10 5
b10 G
b10 K
b1000100000011 !
b1000100000011 8
b1000100000011 E
b1000100000011 S
b11100 "
b11100 >
b11100 R
b100000011 %
b100000011 9
b100000011 W
b110 -
1'
#165000
0'
#170000
b10101 7
b10101 B
b10101 F
b10 X
b1000 &
b1000 ;
b1000 T
b1000 1
b1000 @
b1000 J
b1000 3
b1000 I
b1000 M
b100 5
b100 G
b100 K
b100000000010001000000011 !
b100000000010001000000011 8
b100000000010001000000011 E
b100000000010001000000011 S
b100000 "
b100000 >
b100000 R
b111 -
1'
#175000
0'
#180000
b0 :
b0 C
b1010 7
b1010 B
b1010 F
b0 ?
b0 P
b0 %
b0 9
b0 W
b10000001 X
b1000000110 &
b1000000110 ;
b1000000110 T
b100000011 1
b100000011 @
b100000011 J
b100000011 6
b100000011 D
b100000011 O
b100 3
b100 I
b100 M
b101 5
b101 G
b101 K
b100000011 2
b100000011 A
b100000011 N
b10 4
b10 H
b10 L
b1000000010000010000001010110011 !
b1000000010000010000001010110011 8
b1000000010000010000001010110011 E
b1000000010000010000001010110011 S
b100100 "
b100100 >
b100100 R
b1000 -
1'
#185000
0'
#190000
b1001 7
b1001 B
b1001 F
b0 1
b0 @
b0 J
b0 6
b0 D
b0 O
b101 3
b101 I
b101 M
b1010 5
b1010 G
b1010 K
b0 2
b0 A
b0 N
b11 4
b11 H
b11 L
b10100011000010100110011 !
b10100011000010100110011 8
b10100011000010100110011 E
b10100011000010100110011 S
b101000 "
b101000 >
b101000 R
b1001 -
1'
#195000
0'
#200000
b0 3
b0 I
b0 M
b0 5
b0 G
b0 K
b0 4
b0 H
b0 L
b0 !
b0 8
b0 E
b0 S
b101100 "
b101100 >
b101100 R
b1010 -
1'
#205000
0'
#210000
b110000 "
b110000 >
b110000 R
b1011 -
1'
#215000
0'
#220000
b110100 "
b110100 >
b110100 R
b1100 -
1'
#225000
0'
#230000
b111000 "
b111000 >
b111000 R
b1101 -
1'
#235000
0'
#240000
b111100 "
b111100 >
b111100 R
b1110 -
1'
#245000
0'
#250000
b1000000 "
b1000000 >
b1000000 R
b1111 -
1'
#255000
0'
#260000
b1000100 "
b1000100 >
b1000100 R
b10000 -
1'
#265000
0'
#270000
b100000011 %
b100000011 9
b100000011 W
b0 X
b0 &
b0 ;
b0 T
b1111 #
b1111 =
b1111 V
00
b11010 7
b11010 B
b11010 F
b10000000100011 !
b10000000100011 8
b10000000100011 E
b10000000100011 S
b1001000 "
b1001000 >
b1001000 R
b10001 -
1'
#275000
0'
#280000
b1 X
b100000011 $
b100000011 <
b100000011 U
b100 &
b100 ;
b100 T
b100000011 1
b100000011 @
b100000011 J
b100000011 6
b100000011 D
b100000011 O
b1 3
b1 I
b1 M
b100 5
b100 G
b100 K
b100000010001000100011 !
b100000010001000100011 8
b100000010001000100011 E
b100000010001000100011 S
b1001100 "
b1001100 >
b1001100 R
b0 %
b0 9
b0 W
b10010 -
1'
#285000
0'
#290000
b10 X
b1000 &
b1000 ;
b1000 T
b10 3
b10 I
b10 M
b1000 5
b1000 G
b1000 K
b1000000010010000100011 !
b1000000010010000100011 8
b1000000010010000100011 E
b1000000010010000100011 S
b1010000 "
b1010000 >
b1010000 R
b10011 -
b100000011 %
b100000011 9
b100000011 W
1'
#295000
0'
#300000
b0 %
b0 9
b0 W
b11 X
b0 $
b0 <
b0 U
b1100 &
b1100 ;
b1100 T
b0 1
b0 @
b0 J
b0 6
b0 D
b0 O
b11 3
b11 I
b11 M
b1100 5
b1100 G
b1100 K
b1100000010011000100011 !
b1100000010011000100011 8
b1100000010011000100011 E
b1100000010011000100011 S
b1010100 "
b1010100 >
b1010100 R
b10100 -
1'
#305000
0'
#310000
b100 X
b100000011 $
b100000011 <
b100000011 U
b10000 &
b10000 ;
b10000 T
b100000011 1
b100000011 @
b100000011 J
b100000011 6
b100000011 D
b100000011 O
b100 3
b100 I
b100 M
b10000 5
b10000 G
b10000 K
b10000000010100000100011 !
b10000000010100000100011 8
b10000000010100000100011 E
b10000000010100000100011 S
b1011000 "
b1011000 >
b1011000 R
b10101 -
1'
#315000
0'
#320000
b101 X
b0 $
b0 <
b0 U
b10100 &
b10100 ;
b10100 T
b0 1
b0 @
b0 J
b0 6
b0 D
b0 O
b101 3
b101 I
b101 M
b10100 5
b10100 G
b10100 K
b10100000010101000100011 !
b10100000010101000100011 8
b10100000010101000100011 E
b10100000010101000100011 S
b1011100 "
b1011100 >
b1011100 R
b0 %
b0 9
b0 W
b10110 -
1'
#325000
0'
#330000
b110 X
b11000 &
b11000 ;
b11000 T
b110 3
b110 I
b110 M
b11000 5
b11000 G
b11000 K
b11000000010110000100011 !
b11000000010110000100011 8
b11000000010110000100011 E
b11000000010110000100011 S
b1100000 "
b1100000 >
b1100000 R
b10111 -
1'
#335000
0'
#340000
b111 X
b11100 &
b11100 ;
b11100 T
b111 3
b111 I
b111 M
b11100 5
b11100 G
b11100 K
b11100000010111000100011 !
b11100000010111000100011 8
b11100000010111000100011 E
b11100000010111000100011 S
b1100100 "
b1100100 >
b1100100 R
b11000 -
1'
#345000
0'
#350000
b1000 X
b100000 &
b100000 ;
b100000 T
b1000 3
b1000 I
b1000 M
b0 5
b0 G
b0 K
b10100000000010000000100011 !
b10100000000010000000100011 8
b10100000000010000000100011 E
b10100000000010000000100011 S
b1101000 "
b1101000 >
b1101000 R
b11001 -
1'
#355000
0'
#360000
b1001 X
b100100 &
b100100 ;
b100100 T
b1001 3
b1001 I
b1001 M
b100 5
b100 G
b100 K
b10100100000010001000100011 !
b10100100000010001000100011 8
b10100100000010001000100011 E
b10100100000010001000100011 S
b1101100 "
b1101100 >
b1101100 R
b11010 -
1'
#365000
0'
#370000
b1010 X
b101000 &
b101000 ;
b101000 T
b1010 3
b1010 I
b1010 M
b1000 5
b1000 G
b1000 K
b10101000000010010000100011 !
b10101000000010010000100011 8
b10101000000010010000100011 E
b10101000000010010000100011 S
b1110000 "
b1110000 >
b1110000 R
b11011 -
1'
#375000
0'
#380000
b1011 X
b101100 &
b101100 ;
b101100 T
b1011 3
b1011 I
b1011 M
b1100 5
b1100 G
b1100 K
b10101100000010011000100011 !
b10101100000010011000100011 8
b10101100000010011000100011 E
b10101100000010011000100011 S
b1110100 "
b1110100 >
b1110100 R
b11100 -
1'
#385000
0'
#390000
b1100 X
b110000 &
b110000 ;
b110000 T
b1100 3
b1100 I
b1100 M
b10000 5
b10000 G
b10000 K
b10110000000010100000100011 !
b10110000000010100000100011 8
b10110000000010100000100011 E
b10110000000010100000100011 S
b1111000 "
b1111000 >
b1111000 R
b11101 -
1'
#395000
0'
#400000
b1101 X
b110100 &
b110100 ;
b110100 T
b1101 3
b1101 I
b1101 M
b10100 5
b10100 G
b10100 K
b10110100000010101000100011 !
b10110100000010101000100011 8
b10110100000010101000100011 E
b10110100000010101000100011 S
b1111100 "
b1111100 >
b1111100 R
b11110 -
1'
#405000
0'
#410000
b1110 X
b111000 &
b111000 ;
b111000 T
b1110 3
b1110 I
b1110 M
b11000 5
b11000 G
b11000 K
b10111000000010110000100011 !
b10111000000010110000100011 8
b10111000000010110000100011 E
b10111000000010110000100011 S
b10000000 "
b10000000 >
b10000000 R
b11111 -
1'
#415000
0'
#420000
b1111 X
b111100 &
b111100 ;
b111100 T
b1111 3
b1111 I
b1111 M
b11100 5
b11100 G
b11100 K
b10111100000010111000100011 !
b10111100000010111000100011 8
b10111100000010111000100011 E
b10111100000010111000100011 S
b10000100 "
b10000100 >
b10000100 R
b100000 -
1'
#425000
0'
#430000
b10000 X
b1000000 &
b1000000 ;
b1000000 T
b10000 3
b10000 I
b10000 M
b0 5
b0 G
b0 K
b101000000000010000000100011 !
b101000000000010000000100011 8
b101000000000010000000100011 E
b101000000000010000000100011 S
b10001000 "
b10001000 >
b10001000 R
b100001 -
1'
#435000
0'
#440000
b10001 X
b1000100 &
b1000100 ;
b1000100 T
b10001 3
b10001 I
b10001 M
b100 5
b100 G
b100 K
b101000100000010001000100011 !
b101000100000010001000100011 8
b101000100000010001000100011 E
b101000100000010001000100011 S
b10001100 "
b10001100 >
b10001100 R
b100010 -
1'
#445000
0'
#450000
b10010 X
b1001000 &
b1001000 ;
b1001000 T
b10010 3
b10010 I
b10010 M
b1000 5
b1000 G
b1000 K
b101001000000010010000100011 !
b101001000000010010000100011 8
b101001000000010010000100011 E
b101001000000010010000100011 S
b10010000 "
b10010000 >
b10010000 R
b100011 -
1'
#455000
0'
#460000
b10011 X
b1001100 &
b1001100 ;
b1001100 T
b10011 3
b10011 I
b10011 M
b1100 5
b1100 G
b1100 K
b101001100000010011000100011 !
b101001100000010011000100011 8
b101001100000010011000100011 E
b101001100000010011000100011 S
b10010100 "
b10010100 >
b10010100 R
b100100 -
1'
#465000
0'
#470000
b10100 X
b1010000 &
b1010000 ;
b1010000 T
b10100 3
b10100 I
b10100 M
b10000 5
b10000 G
b10000 K
b101010000000010100000100011 !
b101010000000010100000100011 8
b101010000000010100000100011 E
b101010000000010100000100011 S
b10011000 "
b10011000 >
b10011000 R
b100101 -
1'
#475000
0'
#480000
b10101 X
b1010100 &
b1010100 ;
b1010100 T
b10101 3
b10101 I
b10101 M
b10100 5
b10100 G
b10100 K
b101010100000010101000100011 !
b101010100000010101000100011 8
b101010100000010101000100011 E
b101010100000010101000100011 S
b10011100 "
b10011100 >
b10011100 R
b100110 -
1'
#485000
0'
#490000
b10110 X
b1011000 &
b1011000 ;
b1011000 T
b10110 3
b10110 I
b10110 M
b11000 5
b11000 G
b11000 K
b101011000000010110000100011 !
b101011000000010110000100011 8
b101011000000010110000100011 E
b101011000000010110000100011 S
b10100000 "
b10100000 >
b10100000 R
b100111 -
1'
#495000
0'
#500000
b10111 X
b1011100 &
b1011100 ;
b1011100 T
b10111 3
b10111 I
b10111 M
b11100 5
b11100 G
b11100 K
b101011100000010111000100011 !
b101011100000010111000100011 8
b101011100000010111000100011 E
b101011100000010111000100011 S
b10100100 "
b10100100 >
b10100100 R
b101000 -
1'
#505000
0'
#510000
b11000 X
b1100000 &
b1100000 ;
b1100000 T
b11000 3
b11000 I
b11000 M
b0 5
b0 G
b0 K
b111100000000010000000100011 !
b111100000000010000000100011 8
b111100000000010000000100011 E
b111100000000010000000100011 S
b10101000 "
b10101000 >
b10101000 R
b101001 -
1'
#515000
0'
#520000
b11001 X
b1100100 &
b1100100 ;
b1100100 T
b11001 3
b11001 I
b11001 M
b100 5
b100 G
b100 K
b111100100000010001000100011 !
b111100100000010001000100011 8
b111100100000010001000100011 E
b111100100000010001000100011 S
b10101100 "
b10101100 >
b10101100 R
b101010 -
1'
#525000
0'
#530000
b11010 X
b1101000 &
b1101000 ;
b1101000 T
b11010 3
b11010 I
b11010 M
b1000 5
b1000 G
b1000 K
b111101000000010010000100011 !
b111101000000010010000100011 8
b111101000000010010000100011 E
b111101000000010010000100011 S
b10110000 "
b10110000 >
b10110000 R
b101011 -
1'
#535000
0'
#540000
b11011 X
b1101100 &
b1101100 ;
b1101100 T
b11011 3
b11011 I
b11011 M
b1100 5
b1100 G
b1100 K
b111101100000010011000100011 !
b111101100000010011000100011 8
b111101100000010011000100011 E
b111101100000010011000100011 S
b10110100 "
b10110100 >
b10110100 R
b101100 -
1'
#545000
0'
#550000
b11100 X
b1110000 &
b1110000 ;
b1110000 T
b11100 3
b11100 I
b11100 M
b10000 5
b10000 G
b10000 K
b111110000000010100000100011 !
b111110000000010100000100011 8
b111110000000010100000100011 E
b111110000000010100000100011 S
b10111000 "
b10111000 >
b10111000 R
b101101 -
1'
#555000
0'
#560000
b11101 X
b1110100 &
b1110100 ;
b1110100 T
b11101 3
b11101 I
b11101 M
b10100 5
b10100 G
b10100 K
b111110100000010101000100011 !
b111110100000010101000100011 8
b111110100000010101000100011 E
b111110100000010101000100011 S
b10111100 "
b10111100 >
b10111100 R
b101110 -
1'
#565000
0'
#570000
b11110 X
b1111000 &
b1111000 ;
b1111000 T
b11110 3
b11110 I
b11110 M
b11000 5
b11000 G
b11000 K
b111111000000010110000100011 !
b111111000000010110000100011 8
b111111000000010110000100011 E
b111111000000010110000100011 S
b11000000 "
b11000000 >
b11000000 R
b101111 -
1'
#575000
0'
#580000
b11111 X
b1111100 &
b1111100 ;
b1111100 T
b11111 3
b11111 I
b11111 M
b11100 5
b11100 G
b11100 K
b111111100000010111000100011 !
b111111100000010111000100011 8
b111111100000010111000100011 E
b111111100000010111000100011 S
b11000100 "
b11000100 >
b11000100 R
b110000 -
1'
#585000
0'
#590000
b0 X
b0 &
b0 ;
b0 T
b0 3
b0 I
b0 M
b0 5
b0 G
b0 K
b0 !
b0 8
b0 E
b0 S
b11001000 "
b11001000 >
b11001000 R
b110001 -
1'
#595000
0'
#600000
b11001100 "
b11001100 >
b11001100 R
b110010 -
1'
#605000
0'
#610000
b11010000 "
b11010000 >
b11010000 R
b110011 -
1'
#615000
0'
#620000
b11010100 "
b11010100 >
b11010100 R
b110100 -
1'
#625000
0'
#630000
b11011000 "
b11011000 >
b11011000 R
b110101 -
1'
#635000
0'
#640000
b11011100 "
b11011100 >
b11011100 R
b110110 -
1'
#645000
0'
#650000
b11100000 "
b11100000 >
b11100000 R
b110111 -
1'
#655000
0'
#660000
b11100100 "
b11100100 >
b11100100 R
b111000 -
1'
#665000
0'
#670000
b11101000 "
b11101000 >
b11101000 R
b111001 -
1'
#675000
0'
#680000
b11101100 "
b11101100 >
b11101100 R
b111010 -
1'
#685000
0'
#690000
b11110000 "
b11110000 >
b11110000 R
b111011 -
1'
#695000
0'
#700000
b11110100 "
b11110100 >
b11110100 R
b111100 -
1'
#705000
0'
#710000
b11111000 "
b11111000 >
b11111000 R
b111101 -
1'
#715000
0'
#720000
b11111100 "
b11111100 >
b11111100 R
b111110 -
1'
#725000
0'
#730000
b100000000 "
b100000000 >
b100000000 R
b111111 -
1'
#735000
0'
#740000
b100000100 "
b100000100 >
b100000100 R
b1000000 -
1'
#745000
0'
#750000
b100001000 "
b100001000 >
b100001000 R
b1000001 -
1'
#755000
0'
#760000
b100001100 "
b100001100 >
b100001100 R
b1000010 -
1'
#765000
0'
#770000
b100010000 "
b100010000 >
b100010000 R
b1000011 -
1'
#775000
0'
#780000
b100010100 "
b100010100 >
b100010100 R
b1000100 -
1'
#785000
0'
#790000
b100011000 "
b100011000 >
b100011000 R
b1000101 -
1'
#795000
0'
#800000
b100011100 "
b100011100 >
b100011100 R
b1000110 -
1'
#805000
0'
#810000
b100100000 "
b100100000 >
b100100000 R
b1000111 -
1'
#815000
0'
#820000
b100100100 "
b100100100 >
b100100100 R
b1001000 -
1'
#825000
0'
#830000
b100101000 "
b100101000 >
b100101000 R
b1001001 -
1'
#835000
0'
#840000
b100101100 "
b100101100 >
b100101100 R
b1001010 -
1'
#845000
0'
#850000
b100110000 "
b100110000 >
b100110000 R
b1001011 -
1'
#855000
0'
#860000
b100110100 "
b100110100 >
b100110100 R
b1001100 -
1'
#865000
0'
#870000
b100111000 "
b100111000 >
b100111000 R
b1001101 -
1'
#875000
0'
#880000
b100111100 "
b100111100 >
b100111100 R
b1001110 -
1'
#885000
0'
#890000
b101000000 "
b101000000 >
b101000000 R
b1001111 -
1'
#895000
0'
#900000
b101000100 "
b101000100 >
b101000100 R
b1010000 -
1'
#905000
0'
#910000
b101001000 "
b101001000 >
b101001000 R
b1010001 -
1'
#915000
0'
#920000
b101001100 "
b101001100 >
b101001100 R
b1010010 -
1'
#925000
0'
#930000
b101010000 "
b101010000 >
b101010000 R
b1010011 -
1'
#935000
0'
#940000
b101010100 "
b101010100 >
b101010100 R
b1010100 -
1'
#945000
0'
#950000
b101011000 "
b101011000 >
b101011000 R
b1010101 -
1'
#955000
0'
#960000
b101011100 "
b101011100 >
b101011100 R
b1010110 -
1'
#965000
0'
#970000
b101100000 "
b101100000 >
b101100000 R
b1010111 -
1'
#975000
0'
#980000
b101100100 "
b101100100 >
b101100100 R
b1011000 -
1'
#985000
0'
#990000
b101101000 "
b101101000 >
b101101000 R
b1011001 -
1'
#995000
0'
#1000000
b101101100 "
b101101100 >
b101101100 R
b1011010 -
1'
#1005000
0'
#1010000
b101110000 "
b101110000 >
b101110000 R
b1011011 -
1'
#1015000
0'
#1020000
b101110100 "
b101110100 >
b101110100 R
b1011100 -
1'
#1025000
0'
#1030000
b101111000 "
b101111000 >
b101111000 R
b1011101 -
1'
#1035000
0'
#1040000
b101111100 "
b101111100 >
b101111100 R
b1011110 -
1'
#1045000
0'
#1050000
b110000000 "
b110000000 >
b110000000 R
b1011111 -
1'
#1055000
0'
#1060000
b110000100 "
b110000100 >
b110000100 R
b1100000 -
1'
#1065000
0'
#1070000
b110001000 "
b110001000 >
b110001000 R
b1100001 -
1'
#1075000
0'
#1080000
b110001100 "
b110001100 >
b110001100 R
b1100010 -
1'
#1085000
0'
#1090000
b110010000 "
b110010000 >
b110010000 R
b1100011 -
1'
#1095000
0'
#1100000
b110010100 "
b110010100 >
b110010100 R
b1100100 -
1'
#1105000
0'
#1110000
b110011000 "
b110011000 >
b110011000 R
b1100101 -
1'
#1115000
0'
#1120000
b110011100 "
b110011100 >
b110011100 R
b1100110 -
1'
#1125000
0'
#1130000
b110100000 "
b110100000 >
b110100000 R
b1100111 -
1'
#1135000
0'
#1140000
b110100100 "
b110100100 >
b110100100 R
b1101000 -
1'
#1145000
0'
#1150000
b110101000 "
b110101000 >
b110101000 R
b1101001 -
1'
#1155000
0'
#1160000
b110101100 "
b110101100 >
b110101100 R
b1101010 -
1'
#1165000
0'
#1170000
b110110000 "
b110110000 >
b110110000 R
b1101011 -
1'
#1175000
0'
#1180000
b110110100 "
b110110100 >
b110110100 R
b1101100 -
1'
#1185000
0'
#1190000
b110111000 "
b110111000 >
b110111000 R
b1101101 -
1'
#1195000
0'
#1200000
b110111100 "
b110111100 >
b110111100 R
b1101110 -
1'
#1205000
0'
#1210000
b111000000 "
b111000000 >
b111000000 R
b1101111 -
1'
#1215000
0'
#1220000
b111000100 "
b111000100 >
b111000100 R
b1110000 -
1'
#1225000
0'
#1230000
b111001000 "
b111001000 >
b111001000 R
b1110001 -
1'
#1235000
0'
#1240000
b111001100 "
b111001100 >
b111001100 R
b1110010 -
1'
#1245000
0'
#1250000
b111010000 "
b111010000 >
b111010000 R
b1110011 -
1'
#1255000
0'
#1260000
b111010100 "
b111010100 >
b111010100 R
b1110100 -
1'
#1265000
0'
#1270000
b111011000 "
b111011000 >
b111011000 R
b1110101 -
1'
#1275000
0'
#1280000
b111011100 "
b111011100 >
b111011100 R
b1110110 -
1'
#1285000
0'
#1290000
b111100000 "
b111100000 >
b111100000 R
b1110111 -
1'
#1295000
0'
#1300000
b111100100 "
b111100100 >
b111100100 R
b1111000 -
1'
#1305000
0'
#1310000
b111101000 "
b111101000 >
b111101000 R
b1111001 -
1'
#1315000
0'
#1320000
b111101100 "
b111101100 >
b111101100 R
b1111010 -
1'
#1325000
0'
#1330000
b111110000 "
b111110000 >
b111110000 R
b1111011 -
1'
#1335000
0'
#1340000
b111110100 "
b111110100 >
b111110100 R
b1111100 -
1'
#1345000
0'
#1350000
b111111000 "
b111111000 >
b111111000 R
b1111101 -
1'
#1355000
0'
#1360000
b111111100 "
b111111100 >
b111111100 R
b1111110 -
1'
#1365000
0'
#1370000
b1000000000 "
b1000000000 >
b1000000000 R
b1111111 -
1'
#1375000
0'
#1380000
b1000000100 "
b1000000100 >
b1000000100 R
b10000000 -
1'
#1385000
0'
#1390000
b1000001000 "
b1000001000 >
b1000001000 R
b10000001 -
1'
#1395000
0'
#1400000
b1000001100 "
b1000001100 >
b1000001100 R
b10000010 -
1'
#1405000
0'
#1410000
b1000010000 "
b1000010000 >
b1000010000 R
b10000011 -
1'
#1415000
0'
#1420000
b1000010100 "
b1000010100 >
b1000010100 R
b10000100 -
1'
#1425000
0'
#1430000
b1000011000 "
b1000011000 >
b1000011000 R
b10000101 -
1'
#1435000
0'
#1440000
b1000011100 "
b1000011100 >
b1000011100 R
b10000110 -
1'
#1445000
0'
#1450000
b1000100000 "
b1000100000 >
b1000100000 R
b10000111 -
1'
#1455000
0'
#1460000
b1000100100 "
b1000100100 >
b1000100100 R
b10001000 -
1'
#1465000
0'
#1470000
b1000101000 "
b1000101000 >
b1000101000 R
b10001001 -
1'
#1475000
0'
#1480000
b1000101100 "
b1000101100 >
b1000101100 R
b10001010 -
1'
#1485000
0'
#1490000
b1000110000 "
b1000110000 >
b1000110000 R
b10001011 -
1'
#1495000
0'
#1500000
b1000110100 "
b1000110100 >
b1000110100 R
b10001100 -
1'
#1505000
0'
#1510000
b1000111000 "
b1000111000 >
b1000111000 R
b10001101 -
1'
#1515000
0'
#1520000
b1000111100 "
b1000111100 >
b1000111100 R
b10001110 -
1'
#1525000
0'
#1530000
b1001000000 "
b1001000000 >
b1001000000 R
b10001111 -
1'
#1535000
0'
#1540000
b1001000100 "
b1001000100 >
b1001000100 R
b10010000 -
1'
#1545000
0'
#1550000
b1001001000 "
b1001001000 >
b1001001000 R
b10010001 -
1'
#1555000
0'
#1560000
b1001001100 "
b1001001100 >
b1001001100 R
b10010010 -
1'
#1565000
0'
#1570000
b1001010000 "
b1001010000 >
b1001010000 R
b10010011 -
1'
#1575000
0'
#1580000
b1001010100 "
b1001010100 >
b1001010100 R
b10010100 -
1'
#1585000
0'
#1590000
b1001011000 "
b1001011000 >
b1001011000 R
b10010101 -
1'
#1595000
0'
#1600000
b1001011100 "
b1001011100 >
b1001011100 R
b10010110 -
1'
#1605000
0'
#1610000
b1001100000 "
b1001100000 >
b1001100000 R
b10010111 -
1'
#1615000
0'
#1620000
b1001100100 "
b1001100100 >
b1001100100 R
b10011000 -
1'
#1625000
0'
#1630000
b1001101000 "
b1001101000 >
b1001101000 R
b10011001 -
1'
#1635000
0'
#1640000
b1001101100 "
b1001101100 >
b1001101100 R
b10011010 -
1'
#1645000
0'
#1650000
b1001110000 "
b1001110000 >
b1001110000 R
b10011011 -
1'
#1655000
0'
#1660000
b1001110100 "
b1001110100 >
b1001110100 R
b10011100 -
1'
#1665000
0'
#1670000
b1001111000 "
b1001111000 >
b1001111000 R
b10011101 -
1'
#1675000
0'
#1680000
b1001111100 "
b1001111100 >
b1001111100 R
b10011110 -
1'
#1685000
0'
#1690000
b1010000000 "
b1010000000 >
b1010000000 R
b10011111 -
1'
#1695000
0'
#1700000
b1010000100 "
b1010000100 >
b1010000100 R
b10100000 -
1'
#1705000
0'
#1710000
b1010001000 "
b1010001000 >
b1010001000 R
b10100001 -
1'
#1715000
0'
#1720000
b1010001100 "
b1010001100 >
b1010001100 R
b10100010 -
1'
#1725000
0'
#1730000
b1010010000 "
b1010010000 >
b1010010000 R
b10100011 -
1'
#1735000
0'
#1740000
b1010010100 "
b1010010100 >
b1010010100 R
b10100100 -
1'
#1745000
0'
