a6/cpu_tb.vcd
$date
	Thu Dec 10 11:14:40 2020
$end
$version
	Icarus Verilog
$end
$timescale
	1ps
$end
$scope module cpu_tb $end
$var wire 32 ! idata [31:0] $end
$var wire 32 " iaddr [31:0] $end
$var wire 4 # dwe [3:0] $end
$var wire 32 $ dwdata [31:0] $end
$var wire 32 % drdata [31:0] $end
$var wire 32 & daddr [31:0] $end
$var reg 1 ' clk $end
$var reg 32 ( dtmp [31:0] $end
$var reg 32 ) exp_reg [31:0] $end
$var reg 1 * reset $end
$var integer 32 + exp_file [31:0] $end
$var integer 32 , fail [31:0] $end
$var integer 32 - i [31:0] $end
$var integer 32 . log_file [31:0] $end
$var integer 32 / s [31:0] $end
$scope module u1 $end
$var wire 1 ' clk $end
$var wire 1 * reset $end
$var wire 1 0 xwe $end
$var wire 32 1 xv2 [31:0] $end
$var wire 32 2 xv1 [31:0] $end
$var wire 5 3 xs2 [4:0] $end
$var wire 5 4 xs1 [4:0] $end
$var wire 5 5 xd [4:0] $end
$var wire 32 6 x_xv2 [31:0] $end
$var wire 6 7 op [5:0] $end
$var wire 32 8 idata [31:0] $end
$var wire 32 9 drdata [31:0] $end
$var wire 32 : aluout [31:0] $end
$var reg 1 ; bsel $end
$var reg 32 < daddr [31:0] $end
$var reg 32 = dwdata [31:0] $end
$var reg 4 > dwe [3:0] $end
$var reg 32 ? iaddr [31:0] $end
$var reg 32 @ pc [31:0] $end
$var reg 32 A xwdata [31:0] $end
$scope module alu $end
$var wire 32 B rv2 [31:0] $end
$var wire 32 C rv1 [31:0] $end
$var wire 6 D op [5:0] $end
$var reg 32 E rvout [31:0] $end
$upscope $end
$scope module decoder $end
$var wire 32 F r_rv2 [31:0] $end
$var wire 32 G instr [31:0] $end
$var reg 6 H op [5:0] $end
$var reg 5 I rd [4:0] $end
$var reg 5 J rs1 [4:0] $end
$var reg 5 K rs2 [4:0] $end
$var reg 32 L rv2 [31:0] $end
$var reg 1 0 we $end
$upscope $end
$scope module gprs $end
$var wire 1 ' clk $end
$var wire 5 M rd [4:0] $end
$var wire 1 * reset $end
$var wire 5 N rs1 [4:0] $end
$var wire 5 O rs2 [4:0] $end
$var wire 32 P rv1 [31:0] $end
$var wire 32 Q rv2 [31:0] $end
$var wire 32 R wdata [31:0] $end
$var wire 1 0 we $end
$var integer 32 S i [31:0] $end
$upscope $end
$upscope $end
$scope module u2 $end
$var wire 32 T iaddr [31:0] $end
$var wire 32 U idata [31:0] $end
$upscope $end
$scope module u3 $end
$var wire 1 ' clk $end
$var wire 32 V daddr [31:0] $end
$var wire 32 W dwdata [31:0] $end
$var wire 4 X dwe [3:0] $end
$var wire 32 Y drdata [31:0] $end
$var wire 30 Z a [29:0] $end
$upscope $end
$upscope $end
$enddefinitions $end
#0
$dumpvars
b0 Z
b0 Y
b0 X
b0 W
b0 V
b100000000111110010011 U
b0 T
b100000 S
b1 R
b0 Q
b0 P
b1 O
b0 N
b11111 M
b1 L
b1 K
b0 J
b11111 I
b0 H
b100000000111110010011 G
b0 F
b1 E
b0 D
b0 C
b1 B
b1 A
b100 @
b0 ?
b0 >
b0 =
b0 <
0;
b1 :
b0 9
b100000000111110010011 8
b0 7
b0 6
b11111 5
b0 4
b1 3
b0 2
b1 1
10
bx /
bx .
bx -
bx ,
bx +
1*
bx )
bx (
1'
b0 &
b0 %
b0 $
b0 #
b0 "
b100000000111110010011 !
$end
#5000
0'
#10000
b100000 S
1'
#15000
0'
#20000
b100000 S
1'
#25000
0'
#30000
b100000 S
1'
#35000
0'
#40000
b100000 S
1'
#45000
0'
#50000
b100000 S
1'
#55000
0'
#60000
b100000 S
1'
#65000
0'
#70000
b100000 S
1'
#75000
0'
#80000
b100000 S
1'
#85000
0'
#90000
b100000 S
1'
#95000
0'
#100000
b100 A
b100 R
b100 :
b100 E
b100 3
b100 K
b100 O
b10 5
b10 I
b10 M
b100 1
b100 B
b100 L
b10000000000000100010011 !
b10000000000000100010011 8
b10000000000000100010011 G
b10000000000000100010011 U
b100 "
b100 ?
b100 T
b0 -
1'
b10000000000000000000000000000100 +
b10000000000000000000000000000011 .
0*
#105000
0'
#110000
b111 A
b111 R
b111 :
b111 E
b11 7
b11 D
b11 H
b11 3
b11 K
b11 O
b1 5
b1 I
b1 M
b100 2
b100 C
b100 P
b10 4
b10 J
b10 N
b11 1
b11 B
b11 L
b1100010100000010010011 !
b1100010100000010010011 8
b1100010100000010010011 G
b1100010100000010010011 U
b1000 "
b1000 ?
b1000 T
b1 -
1'
#115000
0'
#120000
1;
b0 :
b0 E
00
b11111 7
b11111 D
b11111 H
b100 6
b100 F
b100 Q
b10 3
b10 K
b10 O
b100 5
b100 I
b100 M
b111 2
b111 C
b111 P
b1 4
b1 J
b1 N
b100 1
b100 B
b100 L
b10001000001000001001100011 !
b10001000001000001001100011 8
b10001000001000001001100011 G
b10001000001000001001100011 U
b1100 "
b1100 ?
b1100 T
b10 -
1'
#125000
0'
#130000
b10000 @
b111 1
b111 B
b111 L
b100001 7
b100001 D
b100001 H
b111 6
b111 F
b111 Q
b1 3
b1 K
b1 O
b10000 5
b10000 I
b10000 M
b100 2
b100 C
b100 P
b10 4
b10 J
b10 N
b100010100100001100011 !
b100010100100001100011 8
b100010100100001100011 G
b100010100100001100011 U
b10000 "
b10000 ?
b10000 T
b11 -
1'
#135000
0'
#140000
b0 A
b0 R
b0 :
b0 E
b0 1
b0 B
b0 L
0;
10
b1001 7
b1001 D
b1001 H
b0 6
b0 F
b0 Q
b0 3
b0 K
b0 O
b11 5
b11 I
b11 M
b0 2
b0 C
b0 P
b0 4
b0 J
b0 N
b100000000010 @
b110110011 !
b110110011 8
b110110011 G
b110110011 U
b100000 "
b100000 ?
b100000 T
b100 -
1'
#145000
0'
#150000
b1011 A
b1011 R
b1011 :
b1011 E
b111 1
b111 B
b111 L
b111 6
b111 F
b111 Q
b1 3
b1 K
b1 O
b0 5
b0 I
b0 M
b100 2
b100 C
b100 P
b10 4
b10 J
b10 N
b100010000000000110011 !
b100010000000000110011 8
b100010000000000110011 G
b100010000000000110011 U
b100100 "
b100100 ?
b100100 T
b101 -
1'
#155000
0'
#160000
b0 :
b0 E
b0 1
b0 B
b0 L
b100 @
1;
00
b100000 7
b100000 D
b100000 H
b0 6
b0 F
b0 Q
b11 3
b11 K
b11 O
b1000 5
b1000 I
b1000 M
b0 2
b0 C
b0 P
b0 4
b0 J
b0 N
b1100000001010001100011 !
b1100000001010001100011 8
b1100000001010001100011 G
b1100000001010001100011 U
b101000 "
b101000 ?
b101000 T
b110 -
1'
#165000
0'
#170000
b1000 @
b100010 7
b100010 D
b100010 H
b0 3
b0 K
b0 O
b11 4
b11 J
b11 N
b11101010001100011 !
b11101010001100011 8
b11101010001100011 G
b11101010001100011 U
b101100 "
b101100 ?
b101100 T
b111 -
1'
#175000
0'
#180000
0;
b111111 7
b111111 D
b111111 H
b0 5
b0 I
b0 M
b0 4
b0 J
b0 N
b0 @
b0 !
b0 8
b0 G
b0 U
b110100 "
b110100 ?
b110100 T
b1000 -
1'
#185000
0'
#190000
b111000 "
b111000 ?
b111000 T
b1001 -
1'
#195000
0'
#200000
b111100 "
b111100 ?
b111100 T
b1010 -
1'
#205000
0'
#210000
b1000000 "
b1000000 ?
b1000000 T
b1011 -
1'
#215000
0'
#220000
b1000100 "
b1000100 ?
b1000100 T
b1100 -
1'
#225000
0'
#230000
b1001000 "
b1001000 ?
b1001000 T
b1101 -
1'
#235000
0'
#240000
b1001100 "
b1001100 ?
b1001100 T
b1110 -
1'
#245000
0'
#250000
b1010000 "
b1010000 ?
b1010000 T
b1111 -
1'
#255000
0'
#260000
b1010100 "
b1010100 ?
b1010100 T
b10000 -
1'
#265000
0'
#270000
b1011000 "
b1011000 ?
b1011000 T
b10001 -
1'
#275000
0'
#280000
b1011100 "
b1011100 ?
b1011100 T
b10010 -
1'
#285000
0'
#290000
b1111 #
b1111 >
b1111 X
b11010 7
b11010 D
b11010 H
b10000000100011 !
b10000000100011 8
b10000000100011 G
b10000000100011 U
b1100000 "
b1100000 ?
b1100000 T
b10011 -
1'
#295000
0'
#300000
b111 $
b111 =
b111 W
b111 1
b111 B
b111 L
b111 6
b111 F
b111 Q
b1 3
b1 K
b1 O
b100 5
b100 I
b100 M
b1 Z
b100 &
b100 <
b100 V
b100000010001000100011 !
b100000010001000100011 8
b100000010001000100011 G
b100000010001000100011 U
b1100100 "
b1100100 ?
b1100100 T
b10100 -
1'
#305000
0'
#310000
b100 $
b100 =
b100 W
b100 1
b100 B
b100 L
b100 6
b100 F
b100 Q
b10 3
b10 K
b10 O
b1000 5
b1000 I
b1000 M
b10 Z
b1000 &
b1000 <
b1000 V
b1000000010010000100011 !
b1000000010010000100011 8
b1000000010010000100011 G
b1000000010010000100011 U
b1101000 "
b1101000 ?
b1101000 T
b10101 -
b0 %
b0 9
b0 Y
1'
#315000
0'
#320000
b0 $
b0 =
b0 W
b0 1
b0 B
b0 L
b0 6
b0 F
b0 Q
b11 3
b11 K
b11 O
b1100 5
b1100 I
b1100 M
b11 Z
b1100 &
b1100 <
b1100 V
b1100000010011000100011 !
b1100000010011000100011 8
b1100000010011000100011 G
b1100000010011000100011 U
b1101100 "
b1101100 ?
b1101100 T
b0 %
b0 9
b0 Y
b10110 -
1'
#325000
0'
#330000
b100 3
b100 K
b100 O
b10000 5
b10000 I
b10000 M
b100 Z
b10000 &
b10000 <
b10000 V
b10000000010100000100011 !
b10000000010100000100011 8
b10000000010100000100011 G
b10000000010100000100011 U
b1110000 "
b1110000 ?
b1110000 T
b10111 -
1'
#335000
0'
#340000
b101 3
b101 K
b101 O
b10100 5
b10100 I
b10100 M
b101 Z
b10100 &
b10100 <
b10100 V
b10100000010101000100011 !
b10100000010101000100011 8
b10100000010101000100011 G
b10100000010101000100011 U
b1110100 "
b1110100 ?
b1110100 T
b11000 -
1'
#345000
0'
#350000
b110 3
b110 K
b110 O
b11000 5
b11000 I
b11000 M
b110 Z
b11000 &
b11000 <
b11000 V
b11000000010110000100011 !
b11000000010110000100011 8
b11000000010110000100011 G
b11000000010110000100011 U
b1111000 "
b1111000 ?
b1111000 T
b11001 -
1'
#355000
0'
#360000
b111 3
b111 K
b111 O
b11100 5
b11100 I
b11100 M
b111 Z
b11100 &
b11100 <
b11100 V
b11100000010111000100011 !
b11100000010111000100011 8
b11100000010111000100011 G
b11100000010111000100011 U
b1111100 "
b1111100 ?
b1111100 T
b11010 -
1'
#365000
0'
#370000
b1000 3
b1000 K
b1000 O
b0 5
b0 I
b0 M
b1000 Z
b100000 &
b100000 <
b100000 V
b10100000000010000000100011 !
b10100000000010000000100011 8
b10100000000010000000100011 G
b10100000000010000000100011 U
b10000000 "
b10000000 ?
b10000000 T
b11011 -
1'
#375000
0'
#380000
b1001 3
b1001 K
b1001 O
b100 5
b100 I
b100 M
b1001 Z
b100100 &
b100100 <
b100100 V
b10100100000010001000100011 !
b10100100000010001000100011 8
b10100100000010001000100011 G
b10100100000010001000100011 U
b10000100 "
b10000100 ?
b10000100 T
b11100 -
1'
#385000
0'
#390000
b1010 3
b1010 K
b1010 O
b1000 5
b1000 I
b1000 M
b1010 Z
b101000 &
b101000 <
b101000 V
b10101000000010010000100011 !
b10101000000010010000100011 8
b10101000000010010000100011 G
b10101000000010010000100011 U
b10001000 "
b10001000 ?
b10001000 T
b11101 -
1'
#395000
0'
#400000
b1011 3
b1011 K
b1011 O
b1100 5
b1100 I
b1100 M
b1011 Z
b101100 &
b101100 <
b101100 V
b10101100000010011000100011 !
b10101100000010011000100011 8
b10101100000010011000100011 G
b10101100000010011000100011 U
b10001100 "
b10001100 ?
b10001100 T
b11110 -
1'
#405000
0'
#410000
b1100 3
b1100 K
b1100 O
b10000 5
b10000 I
b10000 M
b1100 Z
b110000 &
b110000 <
b110000 V
b10110000000010100000100011 !
b10110000000010100000100011 8
b10110000000010100000100011 G
b10110000000010100000100011 U
b10010000 "
b10010000 ?
b10010000 T
b11111 -
1'
#415000
0'
#420000
b1101 3
b1101 K
b1101 O
b10100 5
b10100 I
b10100 M
b1101 Z
b110100 &
b110100 <
b110100 V
b10110100000010101000100011 !
b10110100000010101000100011 8
b10110100000010101000100011 G
b10110100000010101000100011 U
b10010100 "
b10010100 ?
b10010100 T
b100000 -
1'
#425000
0'
#430000
b1110 3
b1110 K
b1110 O
b11000 5
b11000 I
b11000 M
b1110 Z
b111000 &
b111000 <
b111000 V
b10111000000010110000100011 !
b10111000000010110000100011 8
b10111000000010110000100011 G
b10111000000010110000100011 U
b10011000 "
b10011000 ?
b10011000 T
b100001 -
1'
#435000
0'
#440000
b1111 3
b1111 K
b1111 O
b11100 5
b11100 I
b11100 M
b1111 Z
b111100 &
b111100 <
b111100 V
b10111100000010111000100011 !
b10111100000010111000100011 8
b10111100000010111000100011 G
b10111100000010111000100011 U
b10011100 "
b10011100 ?
b10011100 T
b100010 -
1'
#445000
0'
#450000
b10000 3
b10000 K
b10000 O
b0 5
b0 I
b0 M
b10000 Z
b1000000 &
b1000000 <
b1000000 V
b101000000000010000000100011 !
b101000000000010000000100011 8
b101000000000010000000100011 G
b101000000000010000000100011 U
b10100000 "
b10100000 ?
b10100000 T
b100011 -
1'
#455000
0'
#460000
b10001 3
b10001 K
b10001 O
b100 5
b100 I
b100 M
b10001 Z
b1000100 &
b1000100 <
b1000100 V
b101000100000010001000100011 !
b101000100000010001000100011 8
b101000100000010001000100011 G
b101000100000010001000100011 U
b10100100 "
b10100100 ?
b10100100 T
b100100 -
1'
#465000
0'
#470000
b10010 3
b10010 K
b10010 O
b1000 5
b1000 I
b1000 M
b10010 Z
b1001000 &
b1001000 <
b1001000 V
b101001000000010010000100011 !
b101001000000010010000100011 8
b101001000000010010000100011 G
b101001000000010010000100011 U
b10101000 "
b10101000 ?
b10101000 T
b100101 -
1'
#475000
0'
#480000
b10011 3
b10011 K
b10011 O
b1100 5
b1100 I
b1100 M
b10011 Z
b1001100 &
b1001100 <
b1001100 V
b101001100000010011000100011 !
b101001100000010011000100011 8
b101001100000010011000100011 G
b101001100000010011000100011 U
b10101100 "
b10101100 ?
b10101100 T
b100110 -
1'
#485000
0'
#490000
b10100 3
b10100 K
b10100 O
b10000 5
b10000 I
b10000 M
b10100 Z
b1010000 &
b1010000 <
b1010000 V
b101010000000010100000100011 !
b101010000000010100000100011 8
b101010000000010100000100011 G
b101010000000010100000100011 U
b10110000 "
b10110000 ?
b10110000 T
b100111 -
1'
#495000
0'
#500000
b10101 3
b10101 K
b10101 O
b10100 5
b10100 I
b10100 M
b10101 Z
b1010100 &
b1010100 <
b1010100 V
b101010100000010101000100011 !
b101010100000010101000100011 8
b101010100000010101000100011 G
b101010100000010101000100011 U
b10110100 "
b10110100 ?
b10110100 T
b101000 -
1'
#505000
0'
#510000
b10110 3
b10110 K
b10110 O
b11000 5
b11000 I
b11000 M
b10110 Z
b1011000 &
b1011000 <
b1011000 V
b101011000000010110000100011 !
b101011000000010110000100011 8
b101011000000010110000100011 G
b101011000000010110000100011 U
b10111000 "
b10111000 ?
b10111000 T
b101001 -
1'
#515000
0'
#520000
b10111 3
b10111 K
b10111 O
b11100 5
b11100 I
b11100 M
b10111 Z
b1011100 &
b1011100 <
b1011100 V
b101011100000010111000100011 !
b101011100000010111000100011 8
b101011100000010111000100011 G
b101011100000010111000100011 U
b10111100 "
b10111100 ?
b10111100 T
b101010 -
1'
#525000
0'
#530000
b11000 3
b11000 K
b11000 O
b0 5
b0 I
b0 M
b11000 Z
b1100000 &
b1100000 <
b1100000 V
b111100000000010000000100011 !
b111100000000010000000100011 8
b111100000000010000000100011 G
b111100000000010000000100011 U
b11000000 "
b11000000 ?
b11000000 T
b101011 -
1'
#535000
0'
#540000
b11001 3
b11001 K
b11001 O
b100 5
b100 I
b100 M
b11001 Z
b1100100 &
b1100100 <
b1100100 V
b111100100000010001000100011 !
b111100100000010001000100011 8
b111100100000010001000100011 G
b111100100000010001000100011 U
b11000100 "
b11000100 ?
b11000100 T
b101100 -
1'
#545000
0'
#550000
b11010 3
b11010 K
b11010 O
b1000 5
b1000 I
b1000 M
b11010 Z
b1101000 &
b1101000 <
b1101000 V
b111101000000010010000100011 !
b111101000000010010000100011 8
b111101000000010010000100011 G
b111101000000010010000100011 U
b11001000 "
b11001000 ?
b11001000 T
b101101 -
1'
#555000
0'
#560000
b11011 3
b11011 K
b11011 O
b1100 5
b1100 I
b1100 M
b11011 Z
b1101100 &
b1101100 <
b1101100 V
b111101100000010011000100011 !
b111101100000010011000100011 8
b111101100000010011000100011 G
b111101100000010011000100011 U
b11001100 "
b11001100 ?
b11001100 T
b101110 -
1'
#565000
0'
#570000
b11100 3
b11100 K
b11100 O
b10000 5
b10000 I
b10000 M
b11100 Z
b1110000 &
b1110000 <
b1110000 V
b111110000000010100000100011 !
b111110000000010100000100011 8
b111110000000010100000100011 G
b111110000000010100000100011 U
b11010000 "
b11010000 ?
b11010000 T
b101111 -
1'
#575000
0'
#580000
b11101 3
b11101 K
b11101 O
b10100 5
b10100 I
b10100 M
b11101 Z
b1110100 &
b1110100 <
b1110100 V
b111110100000010101000100011 !
b111110100000010101000100011 8
b111110100000010101000100011 G
b111110100000010101000100011 U
b11010100 "
b11010100 ?
b11010100 T
b110000 -
1'
#585000
0'
#590000
b11110 3
b11110 K
b11110 O
b11000 5
b11000 I
b11000 M
b11110 Z
b1111000 &
b1111000 <
b1111000 V
b111111000000010110000100011 !
b111111000000010110000100011 8
b111111000000010110000100011 G
b111111000000010110000100011 U
b11011000 "
b11011000 ?
b11011000 T
b110001 -
1'
#595000
0'
#600000
b1 $
b1 =
b1 W
b1 1
b1 B
b1 L
b1 6
b1 F
b1 Q
b11111 3
b11111 K
b11111 O
b11100 5
b11100 I
b11100 M
b11111 Z
b1111100 &
b1111100 <
b1111100 V
b111111100000010111000100011 !
b111111100000010111000100011 8
b111111100000010111000100011 G
b111111100000010111000100011 U
b11011100 "
b11011100 ?
b11011100 T
b110010 -
1'
#605000
0'
#610000
b0 #
b0 >
b0 X
b0 1
b0 B
b0 L
b111111 7
b111111 D
b111111 H
b0 6
b0 F
b0 Q
b0 3
b0 K
b0 O
b0 5
b0 I
b0 M
b0 Z
b0 &
b0 <
b0 V
b0 !
b0 8
b0 G
b0 U
b11100000 "
b11100000 ?
b11100000 T
b110011 -
b0 %
b0 9
b0 Y
1'
#615000
0'
#620000
b11100100 "
b11100100 ?
b11100100 T
b110100 -
1'
#625000
0'
#630000
b11101000 "
b11101000 ?
b11101000 T
b110101 -
1'
#635000
0'
#640000
b11101100 "
b11101100 ?
b11101100 T
b110110 -
1'
#645000
0'
#650000
b11110000 "
b11110000 ?
b11110000 T
b110111 -
1'
#655000
0'
#660000
b11110100 "
b11110100 ?
b11110100 T
b111000 -
1'
#665000
0'
#670000
b11111000 "
b11111000 ?
b11111000 T
b111001 -
1'
#675000
0'
#680000
b11111100 "
b11111100 ?
b11111100 T
b111010 -
1'
#685000
0'
#690000
b100000000 "
b100000000 ?
b100000000 T
b111011 -
1'
#695000
0'
#700000
b100000100 "
b100000100 ?
b100000100 T
b111100 -
1'
#705000
0'
#710000
b100001000 "
b100001000 ?
b100001000 T
b111101 -
1'
#715000
0'
#720000
b100001100 "
b100001100 ?
b100001100 T
b111110 -
1'
#725000
0'
#730000
b100010000 "
b100010000 ?
b100010000 T
b111111 -
1'
#735000
0'
#740000
b100010100 "
b100010100 ?
b100010100 T
b1000000 -
1'
#745000
0'
#750000
b100011000 "
b100011000 ?
b100011000 T
b1000001 -
1'
#755000
0'
#760000
b100011100 "
b100011100 ?
b100011100 T
b1000010 -
1'
#765000
0'
#770000
b100100000 "
b100100000 ?
b100100000 T
b1000011 -
1'
#775000
0'
#780000
b100100100 "
b100100100 ?
b100100100 T
b1000100 -
1'
#785000
0'
#790000
b100101000 "
b100101000 ?
b100101000 T
b1000101 -
1'
#795000
0'
#800000
b100101100 "
b100101100 ?
b100101100 T
b1000110 -
1'
#805000
0'
#810000
b100110000 "
b100110000 ?
b100110000 T
b1000111 -
1'
#815000
0'
#820000
b100110100 "
b100110100 ?
b100110100 T
b1001000 -
1'
#825000
0'
#830000
b100111000 "
b100111000 ?
b100111000 T
b1001001 -
1'
#835000
0'
#840000
b100111100 "
b100111100 ?
b100111100 T
b1001010 -
1'
#845000
0'
#850000
b101000000 "
b101000000 ?
b101000000 T
b1001011 -
1'
#855000
0'
#860000
b101000100 "
b101000100 ?
b101000100 T
b1001100 -
1'
#865000
0'
#870000
b101001000 "
b101001000 ?
b101001000 T
b1001101 -
1'
#875000
0'
#880000
b101001100 "
b101001100 ?
b101001100 T
b1001110 -
1'
#885000
0'
#890000
b101010000 "
b101010000 ?
b101010000 T
b1001111 -
1'
#895000
0'
#900000
b101010100 "
b101010100 ?
b101010100 T
b1010000 -
1'
#905000
0'
#910000
b101011000 "
b101011000 ?
b101011000 T
b1010001 -
1'
#915000
0'
#920000
b101011100 "
b101011100 ?
b101011100 T
b1010010 -
1'
#925000
0'
#930000
b101100000 "
b101100000 ?
b101100000 T
b1010011 -
1'
#935000
0'
#940000
b101100100 "
b101100100 ?
b101100100 T
b1010100 -
1'
#945000
0'
#950000
b101101000 "
b101101000 ?
b101101000 T
b1010101 -
1'
#955000
0'
#960000
b101101100 "
b101101100 ?
b101101100 T
b1010110 -
1'
#965000
0'
#970000
b101110000 "
b101110000 ?
b101110000 T
b1010111 -
1'
#975000
0'
#980000
b101110100 "
b101110100 ?
b101110100 T
b1011000 -
1'
#985000
0'
#990000
b101111000 "
b101111000 ?
b101111000 T
b1011001 -
1'
#995000
0'
#1000000
b101111100 "
b101111100 ?
b101111100 T
b1011010 -
1'
#1005000
0'
#1010000
b110000000 "
b110000000 ?
b110000000 T
b1011011 -
1'
#1015000
0'
#1020000
b110000100 "
b110000100 ?
b110000100 T
b1011100 -
1'
#1025000
0'
#1030000
b110001000 "
b110001000 ?
b110001000 T
b1011101 -
1'
#1035000
0'
#1040000
b110001100 "
b110001100 ?
b110001100 T
b1011110 -
1'
#1045000
0'
#1050000
b110010000 "
b110010000 ?
b110010000 T
b1011111 -
1'
#1055000
0'
#1060000
b110010100 "
b110010100 ?
b110010100 T
b1100000 -
1'
#1065000
0'
#1070000
b110011000 "
b110011000 ?
b110011000 T
b1100001 -
1'
#1075000
0'
#1080000
b110011100 "
b110011100 ?
b110011100 T
b1100010 -
1'
#1085000
0'
#1090000
b110100000 "
b110100000 ?
b110100000 T
b1100011 -
1'
#1095000
0'
#1100000
b110100100 "
b110100100 ?
b110100100 T
b1100100 -
1'
#1105000
0'
#1110000
b110101000 "
b110101000 ?
b110101000 T
b1100101 -
1'
#1115000
0'
#1120000
b110101100 "
b110101100 ?
b110101100 T
b1100110 -
1'
#1125000
0'
#1130000
b110110000 "
b110110000 ?
b110110000 T
b1100111 -
1'
#1135000
0'
#1140000
b110110100 "
b110110100 ?
b110110100 T
b1101000 -
1'
#1145000
0'
#1150000
b110111000 "
b110111000 ?
b110111000 T
b1101001 -
1'
#1155000
0'
#1160000
b110111100 "
b110111100 ?
b110111100 T
b1101010 -
1'
#1165000
0'
#1170000
b111000000 "
b111000000 ?
b111000000 T
b1101011 -
1'
#1175000
0'
#1180000
b111000100 "
b111000100 ?
b111000100 T
b1101100 -
1'
#1185000
0'
#1190000
b111001000 "
b111001000 ?
b111001000 T
b1101101 -
1'
#1195000
0'
#1200000
b111001100 "
b111001100 ?
b111001100 T
b1101110 -
1'
#1205000
0'
#1210000
b111010000 "
b111010000 ?
b111010000 T
b1101111 -
1'
#1215000
0'
#1220000
b111010100 "
b111010100 ?
b111010100 T
b1110000 -
1'
#1225000
0'
#1230000
b111011000 "
b111011000 ?
b111011000 T
b1110001 -
1'
#1235000
0'
#1240000
b111011100 "
b111011100 ?
b111011100 T
b1110010 -
1'
#1245000
0'
#1250000
b111100000 "
b111100000 ?
b111100000 T
b1110011 -
1'
#1255000
0'
#1260000
b111100100 "
b111100100 ?
b111100100 T
b1110100 -
1'
#1265000
0'
#1270000
b111101000 "
b111101000 ?
b111101000 T
b1110101 -
1'
#1275000
0'
#1280000
b111101100 "
b111101100 ?
b111101100 T
b1110110 -
1'
#1285000
0'
#1290000
b111110000 "
b111110000 ?
b111110000 T
b1110111 -
1'
#1295000
0'
#1300000
b111110100 "
b111110100 ?
b111110100 T
b1111000 -
1'
#1305000
0'
#1310000
b111111000 "
b111111000 ?
b111111000 T
b1111001 -
1'
#1315000
0'
#1320000
b111111100 "
b111111100 ?
b111111100 T
b1111010 -
1'
#1325000
0'
#1330000
b1000000000 "
b1000000000 ?
b1000000000 T
b1111011 -
1'
#1335000
0'
#1340000
b1000000100 "
b1000000100 ?
b1000000100 T
b1111100 -
1'
#1345000
0'
#1350000
b1000001000 "
b1000001000 ?
b1000001000 T
b1111101 -
1'
#1355000
0'
#1360000
b1000001100 "
b1000001100 ?
b1000001100 T
b1111110 -
1'
#1365000
0'
#1370000
b1000010000 "
b1000010000 ?
b1000010000 T
b1111111 -
1'
#1375000
0'
#1380000
b1000010100 "
b1000010100 ?
b1000010100 T
b10000000 -
1'
#1385000
0'
#1390000
b1000011000 "
b1000011000 ?
b1000011000 T
b10000001 -
1'
#1395000
0'
#1400000
b1000011100 "
b1000011100 ?
b1000011100 T
b10000010 -
1'
#1405000
0'
#1410000
b1000100000 "
b1000100000 ?
b1000100000 T
b10000011 -
1'
#1415000
0'
#1420000
b1000100100 "
b1000100100 ?
b1000100100 T
b10000100 -
1'
#1425000
0'
#1430000
b1000101000 "
b1000101000 ?
b1000101000 T
b10000101 -
1'
#1435000
0'
#1440000
b1000101100 "
b1000101100 ?
b1000101100 T
b10000110 -
1'
#1445000
0'
#1450000
b1000110000 "
b1000110000 ?
b1000110000 T
b10000111 -
1'
#1455000
0'
#1460000
b1000110100 "
b1000110100 ?
b1000110100 T
b10001000 -
1'
#1465000
0'
#1470000
b1000111000 "
b1000111000 ?
b1000111000 T
b10001001 -
1'
#1475000
0'
#1480000
b1000111100 "
b1000111100 ?
b1000111100 T
b10001010 -
1'
#1485000
0'
#1490000
b1001000000 "
b1001000000 ?
b1001000000 T
b10001011 -
1'
#1495000
0'
#1500000
b1001000100 "
b1001000100 ?
b1001000100 T
b10001100 -
1'
#1505000
0'
#1510000
b1001001000 "
b1001001000 ?
b1001001000 T
b10001101 -
1'
#1515000
0'
#1520000
b1001001100 "
b1001001100 ?
b1001001100 T
b10001110 -
1'
#1525000
0'
#1530000
b1001010000 "
b1001010000 ?
b1001010000 T
b10001111 -
1'
#1535000
0'
#1540000
b1001010100 "
b1001010100 ?
b1001010100 T
b10010000 -
1'
#1545000
0'
#1550000
b1001011000 "
b1001011000 ?
b1001011000 T
b10010001 -
1'
#1555000
0'
#1560000
b1001011100 "
b1001011100 ?
b1001011100 T
b10010010 -
1'
#1565000
0'
#1570000
b1001100000 "
b1001100000 ?
b1001100000 T
b10010011 -
1'
#1575000
0'
#1580000
b1001100100 "
b1001100100 ?
b1001100100 T
b10010100 -
1'
#1585000
0'
#1590000
b1001101000 "
b1001101000 ?
b1001101000 T
b10010101 -
1'
#1595000
0'
#1600000
b1001101100 "
b1001101100 ?
b1001101100 T
b10010110 -
1'
#1605000
0'
#1610000
b1001110000 "
b1001110000 ?
b1001110000 T
b10010111 -
1'
#1615000
0'
#1620000
b1001110100 "
b1001110100 ?
b1001110100 T
b10011000 -
1'
#1625000
0'
#1630000
b1001111000 "
b1001111000 ?
b1001111000 T
b10011001 -
1'
#1635000
0'
#1640000
b1001111100 "
b1001111100 ?
b1001111100 T
b10011010 -
1'
#1645000
0'
#1650000
b1010000000 "
b1010000000 ?
b1010000000 T
b10011011 -
1'
#1655000
0'
#1660000
b1010000100 "
b1010000100 ?
b1010000100 T
b10011100 -
1'
#1665000
0'
#1670000
b1010001000 "
b1010001000 ?
b1010001000 T
b10011101 -
1'
#1675000
0'
#1680000
b1010001100 "
b1010001100 ?
b1010001100 T
b10011110 -
1'
#1685000
0'
#1690000
b1010010000 "
b1010010000 ?
b1010010000 T
b10011111 -
1'
#1695000
0'
#1700000
b1010010100 "
b1010010100 ?
b1010010100 T
b10100000 -
1'
#1705000
0'
#1710000
b1010011000 "
b1010011000 ?
b1010011000 T
b10100001 -
1'
#1715000
0'
#1720000
b1010011100 "
b1010011100 ?
b1010011100 T
b10100010 -
1'
#1725000
0'
#1730000
b1010100000 "
b1010100000 ?
b1010100000 T
b10100011 -
1'
#1735000
0'
#1740000
b1010100100 "
b1010100100 ?
b1010100100 T
b10100100 -
1'
#1745000
0'
#1750000
b1010101000 "
b1010101000 ?
b1010101000 T
b10100101 -
1'
#1755000
0'
#1760000
b1010101100 "
b1010101100 ?
b1010101100 T
b10100110 -
1'
#1765000
0'
#1770000
b1010110000 "
b1010110000 ?
b1010110000 T
b10100111 -
1'
#1775000
0'
#1780000
b1010110100 "
b1010110100 ?
b1010110100 T
b10101000 -
1'
#1785000
0'
#1790000
b1010111000 "
b1010111000 ?
b1010111000 T
b10101001 -
1'
#1795000
0'
#1800000
b1010111100 "
b1010111100 ?
b1010111100 T
b10101010 -
1'
#1805000
0'
#1810000
b1011000000 "
b1011000000 ?
b1011000000 T
b10101011 -
1'
#1815000
0'
#1820000
b1011000100 "
b1011000100 ?
b1011000100 T
b10101100 -
1'
#1825000
0'
#1830000
b1011001000 "
b1011001000 ?
b1011001000 T
b10101101 -
1'
#1835000
0'
#1840000
b1011001100 "
b1011001100 ?
b1011001100 T
b10101110 -
1'
#1845000
0'
#1850000
b1011010000 "
b1011010000 ?
b1011010000 T
b10101111 -
1'
#1855000
0'
#1860000
b1011010100 "
b1011010100 ?
b1011010100 T
b10110000 -
1'
#1865000
0'
